Data & Codes - Weather data
…
ext_d2m = extract(d2m_mean_daily_Krig, coords)
colnames(ext_d2m) = as.character(data_era5$date)
ext_d2m_coord = cbind(longitude=wm_data2_uni$longitude, 
                      latitude=wm_data2_uni$latitude,
                      ext_d2m )

d2m_mean_wm = as.data.frame(ext_d2m_coord) %>%
  mutate(subject =wm_data2_uni$subject) %>% 
  pivot_longer(3:644,
               values_to = "d2m",
               names_to = "date")%>% 
  mutate(date = as.Date(date))
d2m_mean_wm

# A tibble: 241,392 × 5
   longitude latitude subject date         d2m
       <dbl>    <dbl>   <int> <date>     <dbl>
 1     -77.9     42.9       1 2006-04-01  282.
 2     -77.9     42.9       1 2006-04-02  271.
 3     -77.9     42.9       1 2006-04-03  276.
 4     -77.9     42.9       1 2006-04-04  270.
 5     -77.9     42.9       1 2006-04-05  266.
 6     -77.9     42.9       1 2006-04-06  272.
 7     -77.9     42.9       1 2006-04-07  275.
 8     -77.9     42.9       1 2006-04-08  268.
 9     -77.9     42.9       1 2006-04-09  268.
10     -77.9     42.9       1 2006-04-10  270.
# … with 241,382 more rows
…
Binding data sets

weather_all_wm = d2m_mean_wm %>%
  bind_cols(t2m_mean_wm[,5],
            t2m_max_wm[,5],
            t2m_min_wm[,5],
            sp_mean_wm[,5],
            sm_mean_wm[,5],
            rh_mean_wm[,5],
            st_mean_wm[,5])
weather_all_wm

# A tibble: 241,392 × 12
   longitude latitude subject date         d2m t2m_mean t2m_max t2m_min     sp
       <dbl>    <dbl>   <int> <date>     <dbl>    <dbl>   <dbl>   <dbl>  <dbl>
 1     -77.9     42.9       1 2006-04-01  282.     284.    289.    281. 97567.
 2     -77.9     42.9       1 2006-04-02  271.     279.    285.    273. 98578.
 3     -77.9     42.9       1 2006-04-03  276.     282.    290.    277. 97387.
 4     -77.9     42.9       1 2006-04-04  270.     277.    284.    273. 97250.
 5     -77.9     42.9       1 2006-04-05  266.     273.    277.    270. 97416.
 6     -77.9     42.9       1 2006-04-06  272.     276.    283.    273. 97868.
 7     -77.9     42.9       1 2006-04-07  275.     278.    281.    275. 97193.
 8     -77.9     42.9       1 2006-04-08  268.     274.    277.    271. 97920.
 9     -77.9     42.9       1 2006-04-09  268.     275.    282.    270. 98859.
10     -77.9     42.9       1 2006-04-10  270.     278.    288.    272. 99093.
# … with 241,382 more rows, and 3 more variables: sm <dbl>, rh <dbl>, st <dbl>
…
